fccm-case-studies/zfpsynth/zfp1/test.vcd
$date
     Apr 06, 2020       12:09:38
$end

$version
 SystemC 2.3.2-Accellera --- May 29 2018 10:25:47
$end

$timescale
     1 ns
$end

$scope module SystemC $end
$var wire    1  aaaaa  clk       $end
$var wire    1  aaaab  reset       $end
$var wire    1  aaaap  c_error_enc       $end
$var wire    1  aaaaq  c_error_expo       $end
$scope module c_dut_enc $end
$var wire    1  aaaak  valid       $end
$var wire    1  aaaal  ready       $end
$scope module data $end
$var wire   52  aaaah  frac [51:0]  $end
$var wire   11  aaaai  expo [10:0]  $end
$var wire    1  aaaaj  sign       $end
$upscope $end
$upscope $end
$scope module c_dut_expo $end
$var wire   11  aaaam  data [10:0]  $end
$var wire    1  aaaan  valid       $end
$var wire    1  aaaao  ready       $end
$upscope $end
$scope module c_tb_send_fp $end
$var wire    1  aaaaf  valid       $end
$var wire    1  aaaag  ready       $end
$scope module data $end
$var wire   52  aaaac  frac [51:0]  $end
$var wire   11  aaaad  expo [10:0]  $end
$var wire    1  aaaae  sign       $end
$upscope $end
$upscope $end
$scope module u_dut $end
$var wire    2  aaabh  count [1:0]  $end
$var wire   11  aaabi  emax [10:0]  $end
$var wire    1  aaabj  emax_v       $end
$scope module m_ex $end
$var wire   11  aaabe  data [10:0]  $end
$var wire    1  aaabf  valid       $end
$var wire    1  aaabg  ready       $end
$upscope $end
$scope module m_fp $end
$var wire    1  aaabc  valid       $end
$var wire    1  aaabd  ready       $end
$scope module data $end
$var wire   52  aaaaz  frac [51:0]  $end
$var wire   11  aaaba  expo [10:0]  $end
$var wire    1  aaabb  sign       $end
$upscope $end
$upscope $end
$scope module s_fp $end
$var wire    1  aaaax  valid       $end
$var wire    1  aaaay  ready       $end
$scope module data $end
$var wire   52  aaaau  frac [51:0]  $end
$var wire   11  aaaav  expo [10:0]  $end
$var wire    1  aaaaw  sign       $end
$upscope $end
$upscope $end
$upscope $end
$scope module u_pulse $end
$var wire    1  aaaar  sig       $end
$var wire    2  aaaas  st [1:0]  $end
$var wire    8  aaaat  count [7:0]  $end
$upscope $end
$upscope $end
$enddefinitions  $end

$comment
All initial values are dumped below at time 0 sec = 0 timescale units.
$end

$dumpvars
1aaaaa
0aaaab
b1100001110100111101110111000010010010101110010101001 aaaac
b1111110111 aaaad
1aaaae
1aaaaf
1aaaag
b0 aaaah
b0 aaaai
0aaaaj
0aaaak
1aaaal
b0 aaaam
0aaaan
1aaaao
1aaaap
1aaaaq
0aaaar
b10 aaaas
b1 aaaat
b1100001110100111101110111000010010010101110010101001 aaaau
b1111110111 aaaav
1aaaaw
1aaaax
1aaaay
b0 aaaaz
b0 aaaba
0aaabb
0aaabc
1aaabd
b0 aaabe
0aaabf
1aaabg
b11 aaabh
b0 aaabi
0aaabj
$end

#5
0aaaaa

#10
1aaaaa
b0 aaaat

#15
0aaaaa

#20
1aaaaa
1aaaab
1aaaar
b11 aaaas

#25
0aaaaa

#30
1aaaaa
b1001111110011101100100000101100011111111110110101111 aaaac
b1100001110100111101110111000010010010101110010101001 aaaah
b1111110111 aaaai
1aaaaj
1aaaak
b1001111110011101100100000101100011111111110110101111 aaaau
b1100001110100111101110111000010010010101110010101001 aaaaz
b1111110111 aaaba
1aaabb
1aaabc
b10 aaabh
b1111111000 aaabi

#35
0aaaaa

#40
1aaaaa
b111110001111010101111010000101101100001100110011001 aaaac
b1001111110011101100100000101100011111111110110101111 aaaah
b111110001111010101111010000101101100001100110011001 aaaau
b1001111110011101100100000101100011111111110110101111 aaaaz
b1 aaabh

#45
0aaaaa

#50
1aaaaa
b101101001000010110010000000011010111101000111011010 aaaac
b111110001111010101111010000101101100001100110011001 aaaah
b101101001000010110010000000011010111101000111011010 aaaau
b111110001111010101111010000101101100001100110011001 aaaaz
b0 aaabh

#55
0aaaaa

#60
1aaaaa
b1100001110100111101110111000010010010101110010101001 aaaac
b101101001000010110010000000011010111101000111011010 aaaah
b1100001110100111101110111000010010010101110010101001 aaaau
b101101001000010110010000000011010111101000111011010 aaaaz
b11 aaabh
1aaabj

#65
0aaaaa

#70
1aaaaa
b1001111110011101100100000101100011111111110110101111 aaaac
b1100001110100111101110111000010010010101110010101001 aaaah
b1111111000 aaaam
1aaaan
b1001111110011101100100000101100011111111110110101111 aaaau
b1100001110100111101110111000010010010101110010101001 aaaaz
b1111111000 aaabe
1aaabf
b10 aaabh
0aaabj

#75
0aaaaa

#80
1aaaaa
b111110001111010101111010000101101100001100110011001 aaaac
b1001111110011101100100000101100011111111110110101111 aaaah
b0 aaaam
0aaaan
b111110001111010101111010000101101100001100110011001 aaaau
b1001111110011101100100000101100011111111110110101111 aaaaz
b0 aaabe
0aaabf
b1 aaabh

#85
0aaaaa

#90
1aaaaa
b101101001000010110010000000011010111101000111011010 aaaac
b111110001111010101111010000101101100001100110011001 aaaah
b101101001000010110010000000011010111101000111011010 aaaau
b111110001111010101111010000101101100001100110011001 aaaaz
b0 aaabh

#95
0aaaaa

#100
1aaaaa
b1100001110100111101110111000010010010101110010101001 aaaac
0aaaaf
0aaaag
b101101001000010110010000000011010111101000111011010 aaaah
b1100001110100111101110111000010010010101110010101001 aaaau
0aaaax
0aaaay
b101101001000010110010000000011010111101000111011010 aaaaz
b11 aaabh
1aaabj

#105
0aaaaa

#110
1aaaaa
b1100001110100111101110111000010010010101110010101001 aaaah
0aaaak
b1111111000 aaaam
1aaaan
0aaaap
b1100001110100111101110111000010010010101110010101001 aaaaz
0aaabc
b1111111000 aaabe
1aaabf
b0 aaabi
0aaabj

#115
0aaaaa

#120
1aaaaa
0aaaan
0aaaaq
0aaabf

