examples/llnl-examples/zhw-master/test/test.vcd
$date
     Sep 17, 2019       20:41:52
$end

$version
 SystemC 2.3.2-Accellera --- May 29 2018 10:25:47
$end

$timescale
     1 ns
$end

$scope module SystemC $end
$var wire    1  aaaaa  clk       $end
$var wire    1  aaaab  reset       $end
$var wire   16  aaaac  minbits [15:0]  $end
$var wire   16  aaaad  maxbits [15:0]  $end
$var wire   16  aaaae  maxprec [15:0]  $end
$var wire   16  aaaaf  minexp [15:0]  $end
$scope module c_driver_fp $end
$var wire    1  aaaaj  valid       $end
$var wire    1  aaaak  ready       $end
$scope module data $end
$var wire   23  aaaag  frac [22:0]  $end
$var wire    8  aaaah  expo [7:0]  $end
$var wire    1  aaaai  sign       $end
$upscope $end
$upscope $end
$scope module c_dut_enc $end
$var wire    1  aaaan  valid       $end
$var wire    1  aaaao  ready       $end
$scope module data $end
$var wire   32  aaaal  tdata [31:0]  $end
$var wire    1  aaaam  tlast       $end
$upscope $end
$upscope $end
$scope module u_dut $end
$scope module u_block_buffer $end
$var wire   32  aaacu  s_block0 [31:0]  $end
$var wire   32  aaacv  s_block1 [31:0]  $end
$var wire   32  aaacw  s_block2 [31:0]  $end
$var wire   32  aaacx  s_block3 [31:0]  $end
$var wire    1  aaacy  s_valid       $end
$var wire    1  aaacz  s_ready       $end
$var wire   32  aaada  m_block0 [31:0]  $end
$var wire   32  aaadb  m_block1 [31:0]  $end
$var wire   32  aaadc  m_block2 [31:0]  $end
$var wire   32  aaadd  m_block3 [31:0]  $end
$var wire    1  aaade  m_valid       $end
$var wire    1  aaadf  m_ready       $end
$upscope $end
$scope module u_encode_block $end
$var wire   32  aaabu  s_block0 [31:0]  $end
$var wire   32  aaabv  s_block1 [31:0]  $end
$var wire   32  aaabw  s_block2 [31:0]  $end
$var wire   32  aaabx  s_block3 [31:0]  $end
$var wire    1  aaaby  s_valid       $end
$var wire    1  aaabz  s_ready       $end
$var wire   32  aaaca  m_block0 [31:0]  $end
$var wire   32  aaacb  m_block1 [31:0]  $end
$var wire   32  aaacc  m_block2 [31:0]  $end
$var wire   32  aaacd  m_block3 [31:0]  $end
$var wire    1  aaace  m_valid       $end
$var wire    1  aaacf  m_ready       $end
$var wire    1  aaacg  c_xt_valid       $end
$scope module u_xt $end
$var wire   32  aaach  s_port0 [31:0]  $end
$var wire   32  aaaci  s_port1 [31:0]  $end
$var wire   32  aaacj  s_port2 [31:0]  $end
$var wire   32  aaack  s_port3 [31:0]  $end
$var wire    1  aaacl  s_valid       $end
$var wire    1  aaacm  s_ready       $end
$var wire   32  aaacn  m_port0 [31:0]  $end
$var wire   32  aaaco  m_port1 [31:0]  $end
$var wire   32  aaacp  m_port2 [31:0]  $end
$var wire   32  aaacq  m_port3 [31:0]  $end
$var wire    1  aaacr  m_valid       $end
$var wire    1  aaacs  m_ready       $end
$var wire    6  aaact  v [5:0]  $end
$upscope $end
$upscope $end
$scope module u_encode_ints $end
$var wire   32  aaadg  s_block0 [31:0]  $end
$var wire   32  aaadh  s_block1 [31:0]  $end
$var wire   32  aaadi  s_block2 [31:0]  $end
$var wire   32  aaadj  s_block3 [31:0]  $end
$var wire    1  aaadk  s_valid       $end
$var wire    1  aaadl  s_ready       $end
$var wire    1  aaadm  s_flush       $end
$var wire    4  aaadn  m_bc [3:0]  $end
$var wire    9  aaado  m_bp [8:0]  $end
$var wire    1  aaadp  m_last       $end
$var wire    1  aaadq  m_valid       $end
$var wire    1  aaadr  m_ready       $end
$var wire    5  aaads  k0 [4:0]  $end
$var wire    3  aaadt  n0 [2:0]  $end
$var wire    3  aaadu  n1 [2:0]  $end
$var wire    3  aaadv  bc1 [2:0]  $end
$var wire    4  aaadw  bp1 [3:0]  $end
$var wire    1  aaadx  last1       $end
$var wire    1  aaady  valid1       $end
$upscope $end
$scope module u_encode_stream $end
$var wire   16  aaadz  minbits [15:0]  $end
$var wire   16  aaaea  maxbits [15:0]  $end
$var wire   16  aaaeb  maxprec [15:0]  $end
$var wire   16  aaaec  minexp [15:0]  $end
$var wire    4  aaaeg  s_bc [3:0]  $end
$var wire    9  aaaeh  s_bp [8:0]  $end
$var wire    1  aaaei  s_last       $end
$var wire    1  aaaej  s_valid       $end
$var wire    1  aaaek  s_ready       $end
$var wire    1  aaael  m_flush       $end
$scope module cs $end
$var wire    3  aaaeq  s [2:0]  $end
$var wire    6  aaaer  prec [5:0]  $end
$var wire    6  aaaes  planes [5:0]  $end
$var wire   64  aaaet  buf [63:0]  $end
$var wire    9  aaaeu  bits [8:0]  $end
$var wire    7  aaaev  posr [6:0]  $end
$var wire    7  aaaew  posw [6:0]  $end
$upscope $end
$scope module m_bits $end
$var wire    1  aaaeo  valid       $end
$var wire    1  aaaep  ready       $end
$scope module data $end
$var wire   32  aaaem  tdata [31:0]  $end
$var wire    1  aaaen  tlast       $end
$upscope $end
$upscope $end
$scope module s_ex $end
$var wire    8  aaaed  data [7:0]  $end
$var wire    1  aaaee  valid       $end
$var wire    1  aaaef  ready       $end
$upscope $end
$upscope $end
$scope module u_find_emax $end
$var wire    2  aaabc  count [1:0]  $end
$var wire    8  aaabd  emax [7:0]  $end
$var wire    1  aaabe  emax_v       $end
$scope module m_ex $end
$var wire    8  aaaaz  data [7:0]  $end
$var wire    1  aaaba  valid       $end
$var wire    1  aaabb  ready       $end
$upscope $end
$scope module m_fp $end
$var wire    1  aaaax  valid       $end
$var wire    1  aaaay  ready       $end
$scope module data $end
$var wire   23  aaaau  frac [22:0]  $end
$var wire    8  aaaav  expo [7:0]  $end
$var wire    1  aaaaw  sign       $end
$upscope $end
$upscope $end
$scope module s_fp $end
$var wire    1  aaaas  valid       $end
$var wire    1  aaaat  ready       $end
$scope module data $end
$var wire   23  aaaap  frac [22:0]  $end
$var wire    8  aaaaq  expo [7:0]  $end
$var wire    1  aaaar  sign       $end
$upscope $end
$upscope $end
$upscope $end
$scope module u_fwd_cast $end
$var wire   32  aaabn  m_block0 [31:0]  $end
$var wire   32  aaabo  m_block1 [31:0]  $end
$var wire   32  aaabp  m_block2 [31:0]  $end
$var wire   32  aaabq  m_block3 [31:0]  $end
$var wire    1  aaabr  m_valid       $end
$var wire    1  aaabs  m_ready       $end
$var wire    2  aaabt  count [1:0]  $end
$scope module s_ex $end
$var wire    8  aaabf  data [7:0]  $end
$var wire    1  aaabg  valid       $end
$var wire    1  aaabh  ready       $end
$upscope $end
$scope module s_fp $end
$var wire    1  aaabl  valid       $end
$var wire    1  aaabm  ready       $end
$scope module data $end
$var wire   23  aaabi  frac [22:0]  $end
$var wire    8  aaabj  expo [7:0]  $end
$var wire    1  aaabk  sign       $end
$upscope $end
$upscope $end
$upscope $end
$upscope $end
$upscope $end
$enddefinitions  $end

$comment
All initial values are dumped below at time 0 sec = 0 timescale units.
$end

$dumpvars
1aaaaa
0aaaab
b100000 aaaac
b100000 aaaad
b100000 aaaae
b1111111111101010 aaaaf
b0 aaaag
b0 aaaah
0aaaai
0aaaaj
0aaaak
b0 aaaal
0aaaam
0aaaan
0aaaao
b0 aaaap
b0 aaaaq
0aaaar
0aaaas
0aaaat
b0 aaaau
b0 aaaav
0aaaaw
0aaaax
0aaaay
b0 aaaaz
0aaaba
1aaabb
b11 aaabc
b0 aaabd
0aaabe
b0 aaabf
0aaabg
0aaabh
b0 aaabi
b0 aaabj
0aaabk
0aaabl
0aaabm
b0 aaabn
b0 aaabo
b0 aaabp
b0 aaabq
0aaabr
1aaabs
b0 aaabt
b0 aaabu
b0 aaabv
b0 aaabw
b0 aaabx
0aaaby
1aaabz
b0 aaaca
b0 aaacb
b0 aaacc
b0 aaacd
0aaace
1aaacf
0aaacg
b0 aaach
b0 aaaci
b0 aaacj
b0 aaack
0aaacl
1aaacm
b0 aaacn
b0 aaaco
b0 aaacp
b0 aaacq
0aaacr
1aaacs
b0 aaact
b0 aaacu
b0 aaacv
b0 aaacw
b0 aaacx
0aaacy
1aaacz
b0 aaada
b0 aaadb
b0 aaadc
b0 aaadd
0aaade
1aaadf
b0 aaadg
b0 aaadh
b0 aaadi
b0 aaadj
0aaadk
1aaadl
0aaadm
b0 aaadn
b0 aaado
0aaadp
0aaadq
0aaadr
b0 aaads
b0 aaadt
b0 aaadu
b0 aaadv
b0 aaadw
0aaadx
0aaady
b100000 aaadz
b100000 aaaea
b100000 aaaeb
b1111111111101010 aaaec
b0 aaaed
0aaaee
0aaaef
b0 aaaeg
b0 aaaeh
0aaaei
0aaaej
0aaaek
0aaael
b0 aaaem
0aaaen
0aaaeo
0aaaep
b0 aaaeq
b0 aaaer
b0 aaaes
b0 aaaet
b0 aaaeu
b0 aaaev
b0 aaaew
$end

#5
0aaaaa

#10
1aaaaa

#15
0aaaaa

#20
1aaaaa
1aaaab

#25
0aaaaa

#30
1aaaaa
b100101100010001000101 aaaag
b10001000 aaaah
1aaaai
1aaaaj
1aaaak
1aaaao
b100101100010001000101 aaaap
b10001000 aaaaq
1aaaar
1aaaas
1aaaat
1aaaep
b11010 aaaer

#35
0aaaaa

#40
1aaaaa
b1010011011101001001001 aaaag
b10000111 aaaah
b1010011011101001001001 aaaap
b10000111 aaaaq
b100101100010001000101 aaaau
b10001000 aaaav
1aaaaw
1aaaax
b10 aaabc
b10001001 aaabd
b100101100010001000101 aaabi
b10001000 aaabj
1aaabk
1aaabl

#45
0aaaaa

#50
1aaaaa
b1011011111110011011011 aaaag
b10000110 aaaah
b1011011111110011011011 aaaap
b10000110 aaaaq
b1 aaabc

#55
0aaaaa

#60
1aaaaa
b100101110010100001111 aaaag
b10000101 aaaah
b100101110010100001111 aaaap
b10000101 aaaaq
b0 aaabc

#65
0aaaaa

#70
1aaaaa
b1011011110001101111101 aaaag
b10000011 aaaah
b1011011110001101111101 aaaap
b10000011 aaaaq
b11 aaabc
1aaabe

#75
0aaaaa

#80
1aaaaa
b1011100000101010100110 aaaag
b10000000 aaaah
b1011100000101010100110 aaaap
b10000000 aaaaq
b10001001 aaaaz
1aaaba
b10 aaabc
b10000100 aaabd
0aaabe

#85
0aaaaa

#90
1aaaaa
b0 aaaag
b0 aaaah
0aaaai
b0 aaaap
b0 aaaaq
0aaaar
1aaaay
b0 aaaaz
0aaaba
b1 aaabc
b10001001 aaabf
1aaabg
1aaabm
b10001001 aaaed
1aaaee

#95
0aaaaa

#100
1aaaaa
b1011100001101101111101 aaaag
b10000000 aaaah
b1011100001101101111101 aaaap
b10000000 aaaaq
b1010011011101001001001 aaaau
b10000111 aaaav
b0 aaabc
b1010011011101001001001 aaabi
b10000111 aaabj
b11011011010011101110111011000000 aaabn
b1 aaabt
b11011011010011101110111011000000 aaabu
b11011011010011101110111011000000 aaach
1aaaef
b10 aaaeq
b100000 aaaer

#105
0aaaaa

#110
1aaaaa
b1011011101101110100100 aaaag
b10000011 aaaah
b1011011101101110100100 aaaap
b10000011 aaaaq
b1011011111110011011011 aaaau
b10000110 aaaav
b11 aaabc
1aaabe
b1011011111110011011011 aaabi
b10000110 aaabj
b11101010110010001011011011100000 aaabo
b10 aaabt
b11101010110010001011011011100000 aaabv
b11101010110010001011011011100000 aaaci
1aaadr
b0 aaaed
0aaaee
0aaaef
1aaaek
b11 aaaeq
b100010011 aaaet
b1001 aaaeu
b1001 aaaew

#115
0aaaaa

#120
1aaaaa
b100101010010100010111 aaaag
b10000101 aaaah
b100101010010100010111 aaaap
b10000101 aaaaq
b100101110010100001111 aaaau
b10000101 aaaav
b10000100 aaaaz
1aaaba
b10 aaabc
0aaabe
1aaabh
b100101110010100001111 aaabi
b10000101 aaabj
b11110101001000000011001001010000 aaabp
b11 aaabt
b11110101001000000011001001010000 aaabw
b11110101001000000011001001010000 aaacj
b1 aaadn
b1 aaaeg

#125
0aaaaa

#130
1aaaaa
b1011011111000011001010 aaaag
b10000110 aaaah
b1011011111000011001010 aaaap
b10000110 aaaaq
b1011011110001101111101 aaaau
b10000011 aaaav
b10001001 aaaaz
0aaaba
b1 aaabc
b10000110 aaabd
b10000100 aaabf
0aaabh
b1011011110001101111101 aaabi
b10000011 aaabj
b11111011011010001101011110001000 aaabq
1aaabr
b0 aaabt
b11111011011010001101011110001000 aaabx
1aaaby
b11111011011010001101011110001000 aaack
1aaacl
b10000100 aaaed
1aaaee

#135
0aaaaa

#140
1aaaaa
b1010011100000111100000 aaaag
b10000111 aaaah
b1010011100000111100000 aaaap
b10000111 aaaaq
b1011100000101010100110 aaaau
b10000000 aaaav
b0 aaabc
b10000111 aaabd
b1011100000101010100110 aaabi
b10000000 aaabj
b11010100100001110010000011000000 aaabn
0aaabr
b1 aaabt
b11010100100001110010000011000000 aaabu
0aaaby
b11010100100001110010000011000000 aaach
0aaacl
b1 aaact

#145
0aaaaa

#150
1aaaaa
0aaaaj
0aaaak
0aaaas
0aaaat
b0 aaaau
b0 aaaav
0aaaaw
b11 aaabc
b10001000 aaabd
1aaabe
b0 aaabi
b0 aaabj
0aaabk
b11111010100011111010101011010000 aaabo
b10 aaabt
b11111010100011111010101011010000 aaabv
b11111010100011111010101011010000 aaaci
b10 aaact

#155
0aaaaa

#160
1aaaaa
b1011100001101101111101 aaaau
b10000000 aaaav
b10001000 aaaaz
1aaaba
b0 aaabd
0aaabe
1aaabh
b1011100001101101111101 aaabi
b10000000 aaabj
b0 aaabp
b11 aaabt
b0 aaabw
b0 aaacj
b11110110110100111011101110110000 aaacn
b11110100100010001010101010011100 aaaco
b1001001011000100010001010000 aaacp
b100100101100010001000101000 aaacq
b100 aaact

#165
0aaaaa

#170
1aaaaa
b1011011101101110100100 aaaau
b10000011 aaaav
b10000100 aaaaz
0aaaba
b10001000 aaabf
0aaabh
b1011011101101110100100 aaabi
b10000011 aaabj
b101011100001101101111101000 aaabq
1aaabr
b0 aaabt
b101011100001101101111101000 aaabx
1aaaby
b1011110101001100110011110000 aaaca
b110101100110011111111111101100 aaacb
b11001011111000100010001010000 aaacc
b101111010100110011001111000 aaacd
b101011100001101101111101000 aaack
1aaacl
b11110001100001011110100101101000 aaacn
b11110011001101010011011000001010 aaaco
b11110111100111001000001000 aaacp
b11111100101000010110011010111100 aaacq
b1000 aaact
b1011110101001100110011110000 aaacu
b110101100110011111111111101100 aaacv
b11001011111000100010001010000 aaacw
b101111010100110011001111000 aaacx

#175
0aaaaa

#180
1aaaaa
b100101010010100010111 aaaau
b10000101 aaaav
b100101010010100010111 aaabi
b10000101 aaabj
b10101101110110111010010000 aaabn
0aaabr
b1 aaabt
b10101101110110111010010000 aaabu
0aaaby
b110110100110100011111010111000 aaaca
b110111011101010100101000011110 aaacb
b100001000111011011000011000 aaacc
b1101111001101011101111001100 aaacd
b10101101110110111010010000 aaach
0aaacl
b11101110110011011111010111111100 aaacn
b11110011111000110011001011100101 aaaco
b1001001100111111010011100 aaacp
b101101010101001111011110 aaacq
b10001 aaact
b110110100110100011111010111000 aaacu
b110111011101010100101000011110 aaacv
b100001000111011011000011000 aaacw
b1101111001101011101111001100 aaacx

#185
0aaaaa

#190
1aaaaa
b1011011111000011001010 aaaau
b10000110 aaaav
b1011011111000011001010 aaabi
b10000110 aaabj
b1001001010100101000101110000 aaabo
b10 aaabt
b1001001010100101000101110000 aaabv
b110011110100100000101000001100 aaaca
b110100001001110111011100100101 aaacb
b1011110111000001111101100 aaacc
b1111101010101010000100010 aaacd
1aaacg
b1001001010100101000101110000 aaaci
b11101101101010000010101111011110 aaacn
b11110101010100100110111110001011 aaaco
b10010011000100100010111010 aaacp
b1000100110111011001111 aaacq
1aaacr
b100010 aaact
b110011110100100000101000001100 aaacu
b110100001001110111011100100101 aaacv
b1011110111000001111101100 aaacw
b1111101010101010000100010 aaacx

#195
0aaaaa

#200
1aaaaa
b1010011100000111100000 aaaau
b10000111 aaaav
1aaabh
b1010011100000111100000 aaabi
b10000111 aaabj
b10101101111100001100101000000 aaabp
b11 aaabt
b10101101111100001100101000000 aaabw
b110010111110000111110000100010 aaaca
b110101010101111011000010011111 aaacb
b110010111000101100111001110 aaacc
b11001111011001111010011 aaacd
1aaace
0aaacg
b10101101111100001100101000000 aaacj
b11101011111101100011100001011110 aaacn
b11110011001100111111111100101011 aaaco
b11111111100011110000111010 aaacp
b111110110110100010001111 aaacq
0aaacr
b100 aaact
b110010111110000111110000100010 aaacu
b110101010101111011000010011111 aaacv
b110010111000101100111001110 aaacw
b11001111011001111010011 aaacx
1aaacy

#205
0aaaaa

#210
1aaaaa
b1011011110001101111101 aaaau
b10000011 aaaav
1aaaaw
0aaaax
0aaaay
b10000100 aaabf
0aaabg
0aaabh
b1011011110001101111101 aaabi
b10000011 aaabj
1aaabk
0aaabl
0aaabm
b101010011100000111100000000000 aaabq
1aaabr
b0 aaabt
b101010011100000111100000000000 aaabx
1aaaby
b111100000010100100100110100010 aaaca
b110111011101000000001101111111 aaacb
b100000000100100110001001110 aaacc
b1000011001011100110010011 aaacd
0aaace
b101010011100000111100000000000 aaack
1aaacl
b11101111111001111111010101011010 aaacn
b11110100001100000110111001101010 aaaco
b111111011111111100100110110 aaacp
b110111001100000010000001001 aaacq
b1000 aaact
b111100000010100100100110100010 aaacu
b110111011101000000001101111111 aaacv
b100000000100100110001001110 aaacw
b1000011001011100110010011 aaacx
0aaacy
b110010111110000111110000100010 aaada
b110101010101111011000010011111 aaadb
b110010111000101100111001110 aaadc
b11001111011001111010011 aaadd
1aaade
0aaadf
b110010111110000111110000100010 aaadg
b110101010101111011000010011111 aaadh
b110010111000101100111001110 aaadi
b11001111011001111010011 aaadj
1aaadk
0aaadl

#215
0aaaaa

#220
1aaaaa
0aaabr
0aaaby
b110000001110000000101010101110 aaaca
b110100011100011011001110111110 aaacb
b11000001100000000100101001010 aaacc
b11011001110100000010000011001 aaacd
0aaacl
b11110010100111111110100011000110 aaacn
b11110011100000100111000110001111 aaaco
b1010101001111110110010100010 aaacp
b10110100100001011011100111 aaacq
b10001 aaact
b110000001110000000101010101110 aaacu
b110100011100011011001110111110 aaacv
b11000001100000000100101001010 aaacw
b11011001110100000010000011001 aaacx
b1 aaads
1aaady

#225
0aaaaa

#230
1aaaaa
b110111111000000011100111011010 aaaca
b110100100001111011011010010011 aaacb
b11111111110000011110111100110 aaacc
b111110101100110101100111011 aaacd
1aaacg
b11110101001000011110100111011110 aaacn
b11110000010111111111000000110001 aaaco
b1000001001011110101110001010 aaacp
b100000100110001011101110011 aaacq
1aaacr
b100010 aaact
b110111111000000011100111011010 aaacu
b110100100001111011011010010011 aaacv
b11111111110000011110111100110 aaacw
b111110101100110101100111011 aaacx
1aaadq
b10 aaads
1aaaej

#235
0aaaaa

#240
1aaaaa
b110101011001100011111000100010 aaaca
b110001101000000011000001110001 aaacb
b11000011110100011110010011110 aaacc
b100000101110110100010110111 aaacd
1aaace
0aaacg
b101011011111110101010010 aaacn
b11111110110011110000100010000010 aaaco
b11111100100110011101100000010110 aaacp
b11111110010011010000110110111001 aaacq
0aaacr
b100 aaact
b110101011001100011111000100010 aaacu
b110001101000000011000001110001 aaacv
b11000011110100011110010011110 aaacw
b100000101110110100010110111 aaacx
1aaacy
b11 aaads
b10 aaadt
b10 aaadv
b11 aaadw
b1 aaaes
b1010 aaaeu
b1010 aaaew

#245
0aaaaa

#250
1aaaaa
0aaabs
0aaabz
b1111100100000110101010110 aaaca
b11110100110001100110000110 aaacb
b1101111011100010100001101010 aaacc
b10010111010001001011001001 aaacd
0aaace
0aaacf
0aaacm
b100010101001010011011111010 aaacn
b11111111101110001011001011101100 aaaco
b10000001000000110111110 aaacp
b11110001110000110000110101 aaacq
0aaacs
b1000 aaact
b1111100100000110101010110 aaacu
b11110100110001100110000110 aaacv
b1101111011100010100001101010 aaacw
b10010111010001001011001001 aaacx
0aaacy
0aaacz
b101 aaadn
b1111 aaado
b100 aaads
b10 aaadu
b101 aaaeg
b1111 aaaeh
b10 aaaes
b1011 aaaeu
b1011 aaaew

#255
0aaaaa

#260
1aaaaa
b11 aaadn
b11 aaado
b101 aaads
b0 aaadv
b0 aaadw
b11 aaaeg
b11 aaaeh
b11 aaaes
b111100100010011 aaaet
b10000 aaaeu
b10000 aaaew

#265
0aaaaa

#270
1aaaaa
b0 aaado
b110 aaads
b11 aaadt
b11 aaadv
b110 aaadw
b0 aaaeh
b100 aaaes
b110111100100010011 aaaet
b10011 aaaeu
b10011 aaaew

#275
0aaaaa

#280
1aaaaa
b101 aaadn
b1110 aaado
b111 aaads
b11 aaadu
b101 aaadw
b101 aaaeg
b1110 aaaeh
b101 aaaes
b10110 aaaeu
b10110 aaaew

#285
0aaaaa

#290
1aaaaa
b100 aaadn
b101 aaado
b1000 aaads
b10 aaadv
b10 aaadw
b100 aaaeg
b101 aaaeh
b110 aaaes
b11100000110111100100010011 aaaet
b11011 aaaeu
b11011 aaaew

#295
0aaaaa

#300
1aaaaa
b101011100000110111100100010011 aaaal
1aaaam
1aaaan
b10 aaado
b1001 aaads
b1 aaadv
b1 aaadw
b10 aaaeh
b101011100000110111100100010011 aaaem
1aaaen
1aaaeo
b111 aaaes
b101011100000110111100100010011 aaaet
b11111 aaaeu
b11111 aaaew

#305
0aaaaa

#310
1aaaaa
0aaaan
1aaadf
1aaadl
1aaadm
b1 aaado
b1010 aaads
b100 aaadt
b100 aaadv
b1111 aaadw
b1 aaaeh
1aaael
0aaaeo
b100 aaaeq
b1000 aaaes
b101011100000110111100100010010 aaaet
b100000 aaaeu
b0 aaaew

#315
0aaaaa

#320
1aaaaa
1aaabs
1aaabz
1aaacf
1aaacm
1aaacs
1aaacz
b110101011001100011111000100010 aaada
b110001101000000011000001110001 aaadb
b11000011110100011110010011110 aaadc
b100000101110110100010110111 aaadd
0aaadf
b110101011001100011111000100010 aaadg
b110001101000000011000001110001 aaadh
b11000011110100011110010011110 aaadi
b100000101110110100010110111 aaadj
0aaadl
b1111 aaado
b0 aaads
b0 aaadt
b100 aaadu
b1001 aaadw
1aaadx
b1111 aaaeh
b1001 aaaes

#325
0aaaaa

#330
1aaaaa
b100010101011111101100001110 aaaca
b110010011111011100111100 aaacb
b10000011000011011000010 aaacc
b100110110110001110001110101 aaacd
b1001110001000010110101001010 aaacn
b11111110010111001101000101011000 aaaco
b101101100000000100000001110 aaacp
b11111011100111111100001010111101 aaacq
b10000 aaact
b100010101011111101100001110 aaacu
b110010011111011100111100 aaacv
b10000011000011011000010 aaacw
b100110110110001110001110101 aaacx
b1001 aaado
1aaadp
b1 aaads
b0 aaadu
b0 aaadv
b0 aaadw
0aaadx
b1001 aaaeh
1aaaei
b1010 aaaes

#335
0aaaaa

#340
1aaaaa
b11110110001000111110101011110 aaaca
b11101011011101011010101000 aaacb
b11010111100000001100000010010 aaacc
b1100111000001100011111001101 aaacd
1aaacg
b10011000001000001010001010000 aaacn
b11110010110011001111000010010000 aaaco
b11111100011100000010000100001000 aaacp
b1111111011011001000000 aaacq
1aaacr
b100000 aaact
b11110110001000111110101011110 aaacu
b11101011011101011010101000 aaacv
b11010111100000001100000010010 aaacw
b1100111000001100011111001101 aaacx
0aaadm
b1 aaadn
b0 aaado
0aaadp
0aaadr
b10 aaads
b1 aaaeg
b0 aaaeh
0aaaei
0aaaek
0aaael
b0 aaaeq
b100000 aaaes

#345
0aaaaa

#350
1aaaaa
b10111000001000001010001010000 aaaca
b110111110111010011000110010000 aaacb
b1101101100000110000100011000 aaacc
b10000001100101001000000 aaacd
1aaace
0aaacg
0aaacr
b0 aaact
b10111000001000001010001010000 aaacu
b110111110111010011000110010000 aaacv
b1101101100000110000100011000 aaacw
b10000001100101001000000 aaacx
1aaacy
1aaaef
b10 aaaeq
b0 aaaes
b0 aaaet
b0 aaaeu

#355
0aaaaa

#360
1aaaaa
0aaabs
0aaabz
0aaace
0aaacf
0aaacm
0aaacs
0aaacy
0aaacz
1aaadr
b10001000 aaaed
0aaaef
1aaaek
b11 aaaeq
b100001001 aaaet
b1001 aaaeu
b1001 aaaew

#365
0aaaaa

#370
1aaaaa
b11 aaads
b10 aaadt
b10 aaadv
b11 aaadw
b1 aaaes
b1010 aaaeu
b1010 aaaew

#375
0aaaaa

#380
1aaaaa
b101 aaadn
b1111 aaado
b100 aaads
b11 aaadt
b10 aaadu
b11 aaadv
b111 aaadw
b101 aaaeg
b1111 aaaeh
b10 aaaes
b1011 aaaeu
b1011 aaaew

#385
0aaaaa

#390
1aaaaa
b101 aaads
b11 aaadu
b100 aaadw
b11 aaaes
b111100100001001 aaaet
b10000 aaaeu
b10000 aaaew

#395
0aaaaa

#400
1aaaaa
b100 aaadn
b100 aaado
b110 aaads
b100 aaadt
b100 aaadv
b1001 aaadw
b100 aaaeg
b100 aaaeh
b100 aaaes
b11110111100100001001 aaaet
b10101 aaaeu
b10101 aaaew

#405
0aaaaa

#410
1aaaaa
b1001 aaado
b111 aaads
b100 aaadu
b0 aaadv
b0 aaadw
b1001 aaaeh
b101 aaaes
b100011110111100100001001 aaaet
b11001 aaaeu
b11001 aaaew

#415
0aaaaa

#420
1aaaaa
b10010100011110111100100001001 aaaal
1aaaan
b0 aaado
b1000 aaads
b10 aaadv
b11 aaadw
b0 aaaeh
b10010100011110111100100001001 aaaem
1aaaeo
b110 aaaes
b10010100011110111100100001001 aaaet
b11101 aaaeu
b11101 aaaew

#425
0aaaaa

#430
1aaaaa
0aaaan
1aaadf
1aaadl
1aaadm
b11 aaado
b1001 aaads
b10 aaadw
b11 aaaeh
1aaael
0aaaeo
b100 aaaeq
b111 aaaes
b10010100011110111100100001000 aaaet
b100000 aaaeu
b0 aaaew

#435
0aaaaa

#440
1aaaaa
1aaabs
1aaabz
1aaacf
1aaacm
1aaacs
1aaacz
b10111000001000001010001010000 aaada
b110111110111010011000110010000 aaadb
b1101101100000110000100011000 aaadc
b10000001100101001000000 aaadd
0aaadf
b10111000001000001010001010000 aaadg
b110111110111010011000110010000 aaadh
b1101101100000110000100011000 aaadi
b10000001100101001000000 aaadj
0aaadl
b10 aaado
b0 aaads
b0 aaadt
b11 aaadv
b101 aaadw
1aaadx
b10 aaaeh
b1000 aaaes

#445
0aaaaa

#450
1aaaaa
b101 aaado
1aaadp
b1 aaads
b0 aaadu
b0 aaadv
b0 aaadw
0aaadx
b101 aaaeh
1aaaei
b1001 aaaes

#455
0aaaaa

#460
1aaaaa
0aaadm
b1 aaadn
b0 aaado
0aaadp
0aaadr
b10 aaads
b1 aaaeg
b0 aaaeh
0aaaei
0aaaek
0aaael
b0 aaaeq
b100000 aaaes

#465
0aaaaa

#470
1aaaaa
1aaaef
b10 aaaeq
b0 aaaes
b0 aaaet
b0 aaaeu

#475
0aaaaa

#480
1aaaaa
1aaadr
b0 aaaed
0aaaee
0aaaef
1aaaek
b11 aaaeq
b100010001 aaaet
b1001 aaaeu
b1001 aaaew

#485
0aaaaa

#490
1aaaaa
b11 aaads
b10 aaadt
b10 aaadv
b10 aaadw
b1 aaaes
b1010 aaaeu
b1010 aaaew

#495
0aaaaa

#500
1aaaaa
b100 aaadn
b101 aaado
b100 aaads
b10 aaadu
b11 aaadw
b100 aaaeg
b101 aaaeh
b10 aaaes
b1011 aaaeu
b1011 aaaew

#505
0aaaaa

#510
1aaaaa
b11 aaadn
b11 aaado
b101 aaads
b11 aaadt
b11 aaadv
b100 aaadw
b11 aaaeg
b11 aaaeh
b11 aaaes
b10100100010001 aaaet
b1111 aaaeu
b1111 aaaew

#515
0aaaaa

#520
1aaaaa
b101 aaadn
b1100 aaado
b110 aaads
b11 aaadu
b111 aaadw
b101 aaaeg
b1100 aaaeh
b100 aaaes
b11010100100010001 aaaet
b10010 aaaeu
b10010 aaaew

#525
0aaaaa

#530
1aaaaa
b100 aaadn
b111 aaado
b111 aaads
b10 aaadv
b11 aaadw
b100 aaaeg
b111 aaaeh
b101 aaaes
b1100011010100100010001 aaaet
b10111 aaaeu
b10111 aaaew

#535
0aaaaa

#540
1aaaaa
b11 aaado
b1000 aaads
b11 aaadv
b111 aaadw
b11 aaaeh
b110 aaaes
b11101100011010100100010001 aaaet
b11011 aaaeu
b11011 aaaew

#545
0aaaaa

#550
1aaaaa
b10011011101100011010100100010001 aaaal
1aaaan
b111 aaado
b1001 aaads
b110 aaadw
b111 aaaeh
b10011011101100011010100100010001 aaaem
1aaaeo
b111 aaaes
b11011101100011010100100010001 aaaet
b11111 aaaeu
b11111 aaaew

#555
0aaaaa

#560
1aaaaa
0aaaan
0aaaao
1aaadf
1aaadl
1aaadm
b110 aaado
b1010 aaads
b100 aaadt
b100 aaadv
b1010 aaadw
b110 aaaeh
1aaael
0aaaeo
0aaaep
b100 aaaeq
b1000 aaaes
b10011011101100011010100100010000 aaaet
b100000 aaaeu
b0 aaaew

#565
0aaaaa

#570
1aaaaa
b110101011001100011111000100010 aaada
b110001101000000011000001110001 aaadb
b11000011110100011110010011110 aaadc
b100000101110110100010110111 aaadd
0aaade
b110101011001100011111000100010 aaadg
b110001101000000011000001110001 aaadh
b11000011110100011110010011110 aaadi
b100000101110110100010110111 aaadj
0aaadk
b1010 aaado
b0 aaads
b0 aaadt
b100 aaadu
b11 aaadv
b100 aaadw
1aaadx
b1010 aaaeh
b1001 aaaes

#575
0aaaaa

#580
1aaaaa
b100 aaado
1aaadp
b0 aaadu
b0 aaadv
b0 aaadw
0aaadx
0aaady
b100 aaaeh
1aaaei
b1010 aaaes

#585
0aaaaa

#590
1aaaaa
0aaadm
b1 aaadn
b0 aaado
0aaadp
0aaadq
0aaadr
b1 aaaeg
b0 aaaeh
0aaaei
0aaaej
0aaaek
0aaael
b0 aaaeq
b100000 aaaes

#595
0aaaaa

#600
1aaaaa
b11010 aaaer
b0 aaaes
b0 aaaet
b0 aaaeu

